%YAML 1.1
%TAG !u! tag:unity3d.com,2011:
--- !u!1001 &8091753097605568672
PrefabInstance:
  m_ObjectHideFlags: 0
  serializedVersion: 2
  m_Modification:
    m_TransformParent: {fileID: 0}
    m_Modifications:
    - target: {fileID: 3790185800191137211, guid: 93f2062b96916a84e81e0ed52a249da8,
        type: 3}
      propertyPath: m_LocalPosition.x
      value: -0.49
      objectReference: {fileID: 0}
    - target: {fileID: 3790185800191137211, guid: 93f2062b96916a84e81e0ed52a249da8,
        type: 3}
      propertyPath: m_LocalPosition.y
      value: -6.81
      objectReference: {fileID: 0}
    - target: {fileID: 3790185800191137211, guid: 93f2062b96916a84e81e0ed52a249da8,
        type: 3}
      propertyPath: m_LocalPosition.z
      value: -3.8515625
      objectReference: {fileID: 0}
    - target: {fileID: 3790185800191137211, guid: 93f2062b96916a84e81e0ed52a249da8,
        type: 3}
      propertyPath: m_LocalRotation.x
      value: -0
      objectReference: {fileID: 0}
    - target: {fileID: 3790185800191137211, guid: 93f2062b96916a84e81e0ed52a249da8,
        type: 3}
      propertyPath: m_LocalRotation.y
      value: -0
      objectReference: {fileID: 0}
    - target: {fileID: 3790185800191137211, guid: 93f2062b96916a84e81e0ed52a249da8,
        type: 3}
      propertyPath: m_LocalRotation.z
      value: -0
      objectReference: {fileID: 0}
    - target: {fileID: 3790185800191137211, guid: 93f2062b96916a84e81e0ed52a249da8,
        type: 3}
      propertyPath: m_LocalRotation.w
      value: 1
      objectReference: {fileID: 0}
    - target: {fileID: 3790185800191137211, guid: 93f2062b96916a84e81e0ed52a249da8,
        type: 3}
      propertyPath: m_RootOrder
      value: 0
      objectReference: {fileID: 0}
    - target: {fileID: 3790185800191137211, guid: 93f2062b96916a84e81e0ed52a249da8,
        type: 3}
      propertyPath: m_LocalEulerAnglesHint.x
      value: 0
      objectReference: {fileID: 0}
    - target: {fileID: 3790185800191137211, guid: 93f2062b96916a84e81e0ed52a249da8,
        type: 3}
      propertyPath: m_LocalEulerAnglesHint.y
      value: 0
      objectReference: {fileID: 0}
    - target: {fileID: 3790185800191137211, guid: 93f2062b96916a84e81e0ed52a249da8,
        type: 3}
      propertyPath: m_LocalEulerAnglesHint.z
      value: 0
      objectReference: {fileID: 0}
    - target: {fileID: 3790482045165307213, guid: 93f2062b96916a84e81e0ed52a249da8,
        type: 3}
      propertyPath: m_Name
      value: SceneChangerDoor Variant
      objectReference: {fileID: 0}
    - target: {fileID: 3790482045165307213, guid: 93f2062b96916a84e81e0ed52a249da8,
        type: 3}
      propertyPath: m_TagString
      value: Nav
      objectReference: {fileID: 0}
    - target: {fileID: 7715758197825253180, guid: 93f2062b96916a84e81e0ed52a249da8,
        type: 3}
      propertyPath: cameraNewPosition
      value: 
      objectReference: {fileID: 0}
    - target: {fileID: 7715758197825253180, guid: 93f2062b96916a84e81e0ed52a249da8,
        type: 3}
      propertyPath: newPosition
      value: 
      objectReference: {fileID: 0}
    m_RemovedComponents: []
  m_SourcePrefab: {fileID: 100100000, guid: 93f2062b96916a84e81e0ed52a249da8, type: 3}
